aa,0.001623062259548923
ab,0.003588646623526791
ac,0.004294398868109961
ad,0.005323644211320468
ae,0.0012497579398526707
af,0.0037095367780311246
ag,0.0024659352812319156
ah,6.548216702318069E-4
ai,0.007361426862016201
aj,2.0204326748177973E-4
ak,7.275796335908965E-5
al,0.00585757572704794
am,0.004957615687960124
an,0.011277484320658896
ao,3.559543438183155E-4
ap,0.0030060232400128503
aq,9.598454396987597E-4
ar,0.009341003142024663
as,0.001723804054969201
at,0.005979025558193498
au,0.009477004565842039
av,0.001009096984126451
aw,1.455159267181793E-5
ax,2.0428197404667478E-4
ay,0.0013745658308455706
az,1.723804054969201E-4
ba,0.002094869668100558
bb,5.204992763381029E-5
bc,1.1529338809209592E-4
bd,7.835472977132731E-5
be,0.0026427930998586258
bf,1.7685781862671022E-4
bg,1.0074179542027798E-5
bh,4.337493969484191E-4
bi,0.002169306661383319
bj,3.8617688244439894E-5
bk,8.395149618356499E-6
bl,9.87829271759948E-4
bm,4.1975748091782494E-5
bn,6.324346045828563E-5
bo,0.0013622529447386478
bp,2.6304802137517027E-5
bq,2.8543508702412094E-5
br,0.0010365211395464158
bs,3.4588016427628774E-4
bt,1.0242082534394928E-4
bu,0.0011719628867225673
bv,2.563319016804851E-4
bw,1.1193532824475332E-6
bx,1.7349975877936765E-5
by,2.1827389007726896E-5
bz,3.3580598473425992E-6
ca,0.004710238612539219
cb,1.623062259548923E-4
cc,0.0014305334949679474
cd,6.811264723693239E-4
ce,0.007846106833315984
cf,9.363390207673615E-4
cg,9.906276549660668E-5
ch,0.003590885330091686
ci,0.0028246880082563497
cj,8.171278961866992E-5
ck,2.742415541996456E-5
cl,0.0012217741077914825
cm,4.919557676356908E-4
cn,5.423266653458297E-4
co,0.006651756880944466
cp,5.087460668724038E-4
cq,4.5277840275002716E-4
cr,0.0012111402516082309
cs,4.516590494675796E-4
ct,4.8635900122345315E-4
cu,0.00226892910352115
cv,2.932705600012537E-4
cw,1.0074179542027798E-5
cx,8.339181954234122E-5
cy,2.121174470238075E-4
cz,2.742415541996456E-5
da,0.0032550793453574264
db,1.858126448862905E-4
dc,5.759072638192558E-4
dd,4.0632524152845454E-4
de,0.016869773319766773
df,3.2405277526856085E-4
dg,9.010793923702642E-5
dh,3.7834140946726617E-4
di,0.005461324665061514
dj,5.6527340763600425E-5
dk,5.037089771013899E-5
dl,3.397237212228263E-4
dm,4.275929538949577E-4
dn,2.692044644286317E-4
do,0.002512388442453488
dp,3.150979490089806E-4
dq,1.3488207053492774E-4
dr,0.0010729001212259606
ds,6.08928185651458E-4
dt,4.298316604598527E-4
du,0.0030776618500894925
dv,8.747745902327472E-4
dw,4.477413129790133E-6
dx,8.059343633622238E-5
dy,1.0745791511496318E-4
dz,1.902900580160806E-5
ea,0.004470137333454223
eb,0.0013583352082500815
ec,0.006813503430258134
ed,0.0068420469389605465
ee,0.0031151601850514846
ef,0.012751672593642297
eg,0.001793203958480948
eh,7.824279444308257E-4
ei,0.00400896378108584
ej,4.869186778646769E-4
ek,4.4214454656677555E-5
el,0.009164145323397953
em,0.008421454420494015
en,0.02029331533413255
eo,0.001423817375273262
ep,0.0047074402293331005
eq,0.0031084440653567995
er,0.014273433381129718
es,0.017983529835802068
et,0.005661129225978398
eu,0.008036396891332063
ev,0.0015956381041289584
ew,1.1753209465699098E-5
ex,0.0013141207535934038
ey,2.0540132732912232E-4
ez,0.0010191711636684789
fa,0.0042020522223080396
fb,5.8766047328495485E-5
fc,0.0016096300201595525
fd,1.975658543519896E-4
fe,0.007200799665984981
ff,0.0015105672546629459
fg,5.484831083992912E-5
fh,5.037089771013899E-5
fi,0.005121600943838687
fj,4.533380793912509E-5
fk,1.902900580160806E-5
fl,0.0032785857642888246
fm,8.758939435151947E-4
fn,1.5670945954265463E-4
fo,0.005657771166131056
fp,9.911873316072906E-4
fq,6.240394549644997E-4
fr,0.001189312862600504
fs,1.5503042961898333E-4
ft,0.008046471070874093
fu,0.0032377293694794895
fv,4.365477801545379E-5
fw,6.1564430534614325E-6
fx,2.8543508702412094E-5
fy,4.309510137423003E-5
fz,4.477413129790133E-6
ga,0.001354977148402739
gb,1.8469329160384295E-5
gc,6.772087358807575E-5
gd,8.730955603090758E-5
ge,0.00300154582688306
gf,3.078221526730716E-5
gg,4.029671816811119E-5
gh,2.261093630544017E-4
gi,0.0014870608357315477
gj,1.287256274814663E-5
gk,2.2387065648950664E-6
gl,2.0316262076422727E-4
gm,5.988540061094302E-5
gn,0.0011820370662645949
go,6.979167716060369E-4
gp,1.902900580160806E-5
gq,2.6304802137517027E-5
gr,0.0015670945954265464
gs,5.093057435136276E-5
gt,1.740594354205914E-4
gu,7.645182919116651E-4
gv,2.0148359084055595E-5
gw,1.6790299236712996E-6
gx,8.954826259580266E-6
gy,4.1416071450558724E-5
gz,1.6790299236712996E-6
ha,0.0033966775355870394
hb,2.4066095572621963E-5
hc,1.2368853771045242E-4
hd,8.674987938968381E-5
he,0.0019079376699318203
hf,7.947408305377485E-5
hg,1.7349975877936765E-5
hh,2.9662861984859628E-5
hi,8.378359319119786E-4
hj,1.287256274814663E-5
hk,5.596766412237666E-6
hl,6.604184366440445E-5
hm,7.667569984765602E-5
hn,5.428863419870536E-5
ho,0.0017137298754271732
hp,2.742415541996456E-5
hq,2.7983832061188327E-5
hr,2.9830764977226756E-4
hs,6.156443053461432E-5
ht,9.234664580192149E-5
hu,4.1304136122313973E-4
hv,1.958868244283183E-5
hw,2.2387065648950664E-6
hx,7.723537648887979E-5
hy,6.772087358807575E-5
hz,2.798383206118833E-6
ia,0.0043391729994078625
ib,0.0015883623077930496
ic,0.0032349309862733707
id,0.0025163061789420546
ie,0.00918597271240568
if,0.005373455432389383
ig,0.0013432239389370398
ih,2.630480213751703E-4
ii,0.003033447395432815
ij,4.180784509941536E-4
ik,3.6378981679544826E-5
il,0.008671629879121038
im,0.0029097588577223625
in,0.010046195709966609
io,0.0039703460928414
ip,0.0013146804302346276
iq,7.824279444308257E-4
ir,0.004824412647348867
is,0.006793914747815303
it,0.008821063542327784
iu,0.0033054502430675653
iv,5.602363178649903E-4
iw,1.790965251916053E-5
ix,6.06689479086563E-4
iy,1.7517878870303892E-4
iz,8.563052610723629E-5
ja,3.447608109938402E-4
jb,2.0708035725279362E-5
jc,1.3768045374104658E-4
jd,8.395149618356499E-5
je,3.649091700778958E-4
jf,1.488739865655219E-4
jg,2.6304802137517027E-5
jh,3.749833496199236E-5
ji,2.289077462605205E-4
jj,7.555634656520849E-5
jk,7.275796335908965E-6
jl,1.4663528000062685E-4
jm,9.794341221415915E-5
jn,7.275796335908965E-5
jo,3.145382723677568E-4
jp,8.898858595457888E-5
jq,6.436281374073315E-5
jr,7.555634656520849E-5
js,9.402567572559278E-5
jt,1.0633856183251565E-4
ju,1.9980456091688465E-4
jv,8.451117282478875E-5
jw,3.917736488566366E-6
jx,2.6304802137517027E-5
jy,2.4066095572621963E-5
jz,2.2387065648950664E-6
ka,1.4999333984796944E-4
kb,6.1564430534614325E-6
kc,2.5185448855069497E-5
kd,1.8469329160384295E-5
ke,6.884022687052329E-5
kf,1.902900580160806E-5
kg,3.3580598473425992E-6
kh,6.7161196946851984E-6
ki,5.428863419870536E-5
kj,6.1564430534614325E-6
kk,3.3580598473425992E-6
kl,7.835472977132732E-6
km,2.0708035725279362E-5
kn,1.6790299236712998E-5
ko,3.246124519097846E-5
kp,9.51450290080403E-6
kq,7.275796335908965E-6
kr,9.51450290080403E-6
ks,1.902900580160806E-5
kt,1.455159267181793E-5
ku,3.973704152688743E-5
kv,1.0633856183251564E-5
kw,1.1193532824475332E-6
kx,5.037089771013899E-6
ky,1.6790299236712996E-6
kz,1.6790299236712996E-6
la,0.008856323170724881
lb,1.471949566418506E-4
lc,7.079909511480647E-4
ld,6.632168198501633E-4
le,0.01603025835793112
lf,9.497712601567318E-4
lg,1.354417471761515E-4
lh,2.3394483603153443E-4
li,0.005568222903535254
lj,6.604184366440445E-5
lk,1.5670945954265464E-5
ll,0.004931870562463831
lm,4.706880552691877E-4
ln,5.456847251931724E-4
lo,0.0026886865844389747
lp,2.8095767389433083E-4
lq,5.921378864147451E-4
lr,2.664060812225129E-4
ls,0.0025694754598583123
lt,9.195487215306484E-4
lu,0.0035282015462746244
lv,2.865544403065685E-4
lw,1.3432239389370397E-5
lx,1.3712077709982282E-4
ly,5.210589529793267E-4
lz,2.3506418931398196E-5
ma,0.0073155333774358525
mb,0.0010600275584778138
mc,8.456714048891113E-4
md,6.033314192392203E-4
me,0.008603909005532963
mf,8.423133450417686E-4
mg,1.421578668708367E-4
mh,2.490561053445761E-4
mi,0.0033485453444417955
mj,7.387731664153718E-5
mk,4.533380793912509E-5
ml,3.447608109938402E-4
mm,0.0025476480708505854
mn,5.809443535902697E-4
mo,0.0030194554794022205
mp,0.002804539649172294
mq,4.8132191145243923E-4
mr,3.0894150595551915E-4
ms,3.632301401542245E-4
mt,5.003509172540473E-4
mu,9.604051163399834E-4
mv,5.49042785040515E-4
mw,4.477413129790133E-6
mx,2.0540132732912232E-4
my,1.3824013038227033E-4
mz,1.5670945954265464E-5
na,0.0044628615371183145
nb,2.865544403065685E-4
nc,0.0037604673523824873
nd,0.006029956132544861
ne,0.008857442524007329
nf,0.0030317683655091436
ng,0.0017848088088625916
nh,3.0670279939062407E-4
ni,0.0036043175694810566
nj,1.4159819022961293E-4
nk,2.742415541996456E-5
nl,0.0012570337361885798
nm,6.783280891632051E-4
nn,0.0021038244943601386
no,0.004187500629636221
np,0.0010913694503863448
nq,0.0010012615111493184
nr,6.59299083361597E-4
ns,0.003939004200932869
nt,0.017123306838241138
nu,0.0018732377181759467
nv,5.736685572543608E-4
nw,6.7161196946851984E-6
nx,9.234664580192149E-5
ny,5.440056952695011E-4
nz,6.268378381706186E-5
oa,8.730955603090758E-4
ob,5.255363661091168E-4
oc,0.002026029441230035
od,0.0012380047303869716
oe,3.5875272702443436E-4
of,0.002413885353598105
og,4.885977077883482E-4
oh,2.0204326748177973E-4
oi,0.007421871939268368
oj,1.1921112458066228E-4
ok,2.1827389007726896E-5
ol,0.0017467507972593755
om,0.0034431306968086117
on,0.011758806232111335
oo,1.0857726839741072E-4
op,0.00105946788183659
oq,2.87673793589016E-4
or,0.007161622301099317
os,9.077955120649493E-4
ot,0.0010583485285541425
ou,0.010332190473631955
ov,2.1939324335971648E-4
ow,9.51450290080403E-6
ox,8.003375969499861E-5
oy,0.0023937369945140497
oz,6.772087358807575E-5
pa,0.005596206735596442
pb,1.790965251916053E-5
pc,1.9364811786342322E-4
pd,1.958868244283183E-4
pe,0.004003926691314826
pf,2.999866796959389E-4
pg,1.5111269313041697E-5
ph,2.0987874045891246E-4
pi,0.0017148492287096207
pj,3.581930503832106E-5
pk,7.835472977132732E-6
pl,0.0022521388042844367
pm,5.204992763381029E-5
pn,6.939990351174706E-5
po,0.004780198192692191
pp,9.867099184775005E-4
pq,3.414027511464976E-5
pr,0.003516448336808925
ps,3.497979007648541E-4
pt,6.92879681835023E-4
pu,9.503309367979556E-4
pv,6.660152030562822E-5
pw,2.798383206118833E-6
px,2.2387065648950663E-5
py,2.289077462605205E-4
pz,3.917736488566366E-6
qa,5.149025099258652E-5
qb,5.037089771013899E-6
qc,4.533380793912509E-5
qd,2.742415541996456E-5
qe,6.660152030562822E-5
qf,3.525962839709729E-5
qg,1.6790299236712996E-6
qh,1.1753209465699098E-5
qi,2.1659486015359765E-4
qj,3.3580598473425996E-5
qk,5.596766412237666E-7
ql,2.9662861984859628E-5
qm,3.8617688244439894E-5
qn,3.3580598473425996E-5
qo,3.246124519097846E-5
qp,1.3432239389370397E-5
qq,8.395149618356499E-6
qr,2.6864478778740794E-5
qs,1.1753209465699098E-5
qt,3.3580598473425996E-5
qu,0.014186683501740035
qv,1.3432239389370397E-5
qw,3.3580598473425992E-6
qx,3.917736488566366E-6
qy,6.7161196946851984E-6
qz,1.1193532824475332E-6
ra,0.008528352658967755
rb,0.0018682006284049327
rc,0.0027720784039813157
rd,0.002702118823828345
re,0.017146813257172537
rf,0.001736116941076124
rg,7.298183401557916E-4
rh,2.4066095572621962E-4
ri,0.006916483932243307
rj,1.3488207053492774E-4
rk,3.805801160321612E-5
rl,0.002092630961535663
rm,0.0014299738183267236
rn,0.0011008839532871489
ro,0.0053723360791069355
rp,0.0010477146723708909
rq,9.464132003093892E-4
rr,0.0023204193545137363
rs,0.002922071743829285
rt,0.005277750726740119
ru,0.0025649980467285223
rv,5.445653719107249E-4
rw,1.5111269313041697E-5
rx,2.1491583022992635E-4
ry,1.723804054969201E-4
rz,3.469995175587353E-5
sa,0.005198276643686344
sb,7.639586152704414E-4
sc,0.003927810668108394
sd,0.004443272854675483
se,0.003889192979863954
sf,0.003874081710550912
sg,7.208635138962114E-4
sh,7.410118729802669E-4
si,0.0032450051658153983
sj,3.346866314518124E-4
sk,4.701283786279639E-5
sl,0.0030340070720740386
sm,0.002186656637261256
sn,0.001796002341687067
so,0.001652165444892559
sp,0.003632301401542245
sq,0.0024385111258119507
sr,0.0010018211877905422
ss,6.749700293158625E-4
st,0.0013723271242806756
su,5.221783062617742E-4
sv,0.001445644764280989
sw,6.7161196946851984E-6
sx,8.283214290111745E-5
sy,3.833784992382801E-4
sz,3.749833496199236E-5
ta,0.008175756374996781
tb,6.195620418347096E-4
tc,0.0019711811303901056
td,0.002723386536194848
te,0.013006885142040335
tf,0.002020992351459021
tg,2.8319638045922585E-4
th,6.061298024453392E-4
ti,0.00789032128797266
tj,2.272287163368492E-4
tk,3.414027511464976E-5
tl,0.0021250922067266417
tm,9.083551887061731E-4
tn,7.175054540488687E-4
to,0.005047723627197151
tp,0.002111659967337271
tq,0.0019359215019930085
tr,0.006038910958804441
ts,0.0012200950778678112
tt,0.0020758406622989503
tu,0.0040307911700935665
tv,9.97343774660752E-4
tw,1.0633856183251564E-5
tx,9.962244213783045E-5
ty,1.673433157259062E-4
tz,2.2387065648950663E-5
ua,0.004015120224139301
ub,6.783280891632051E-4
uc,0.0016527251215337827
ud,0.0015060898415331558
ue,0.010813512385084394
uf,0.003126913394517184
ug,8.059343633622239E-4
uh,1.136143581684246E-4
ui,0.008777408764312331
uj,1.6454493251978736E-4
uk,3.3020921832202225E-5
ul,0.0026545463093243247
um,0.004744378887653869
un,0.0022068049963453115
uo,0.002797263852836385
up,0.0013818416271814797
uq,3.3188824824569355E-4
ur,0.010782170493175862
us,0.005728290422925251
ut,0.0051255186803272545
uu,0.0015016124284033658
uv,3.6714787664279087E-4
uw,7.835472977132732E-6
ux,0.0025493271007742567
uy,7.684360284002314E-4
uz,1.2089015450433358E-4
va,6.206813951171571E-4
vb,8.842890931335511E-5
vc,6.436281374073315E-5
vd,3.581930503832106E-5
ve,0.001572691361838784
vf,2.121174470238075E-4
vg,6.7161196946851984E-6
vh,1.623062259548923E-5
vi,0.0018010394314580808
vj,2.2387065648950663E-5
vk,2.798383206118833E-6
vl,9.234664580192149E-5
vm,2.546528717568138E-4
vn,0.0022426243013836324
vo,0.001469710859853611
vp,1.7349975877936765E-5
vq,6.7161196946851984E-6
vr,0.0013644916513035428
vs,2.6304802137517027E-5
vt,3.1565762565020434E-4
vu,1.2256918442800488E-4
vv,2.0148359084055595E-5
vw,2.798383206118833E-6
vx,1.7349975877936765E-5
vy,3.6378981679544826E-5
wa,1.287256274814663E-5
wb,3.917736488566366E-6
wc,8.395149618356499E-6
wd,3.917736488566366E-6
we,2.5185448855069497E-5
wf,7.275796335908965E-6
wg,3.3580598473425992E-6
wh,2.798383206118833E-6
wi,1.0074179542027798E-5
wj,2.798383206118833E-6
wk,5.596766412237666E-7
wl,8.954826259580266E-6
wm,7.275796335908965E-6
wn,8.395149618356499E-6
wo,5.596766412237666E-6
wp,5.037089771013899E-6
wq,3.3580598473425992E-6
wr,1.2312886106922865E-5
ws,7.835472977132732E-6
wt,1.1753209465699098E-5
wu,4.477413129790133E-6
wv,4.477413129790133E-6
ww,3.917736488566366E-6
wx,5.596766412237666E-7
wy,1.6790299236712996E-6
wz,5.596766412237666E-7
xa,4.4102519328432805E-4
xb,6.156443053461432E-5
xc,4.7124773191041145E-4
xd,5.053880070250611E-4
xe,3.514769306885254E-4
xf,3.229334219861133E-4
xg,4.1416071450558724E-5
xh,1.0298050198517304E-4
xi,7.611602320643225E-4
xj,3.8617688244439894E-5
xk,2.2387065648950664E-6
xl,2.2163194992461157E-4
xm,5.182605697732079E-4
xn,1.1417403480964838E-4
xo,1.94207794504647E-4
xp,4.2927198381862894E-4
xq,3.47559194199959E-4
xr,7.499666992398472E-5
xs,5.484831083992912E-5
xt,4.55576785956146E-4
xu,8.619020274846006E-5
xv,3.570736971007631E-4
xw,2.2387065648950664E-6
xx,4.919557676356908E-4
xy,1.790965251916053E-5
xz,2.2387065648950664E-6
ya,0.0018256652036719265
yb,5.5967664122376655E-5
yc,3.2405277526856085E-4
yd,7.152667474839737E-4
ye,0.001220654754509035
yf,4.231155407651675E-4
yg,3.246124519097846E-5
yh,2.294674229017443E-5
yi,2.3058677618419183E-4
yj,3.525962839709729E-5
yk,5.037089771013899E-6
yl,3.246124519097846E-4
ym,2.507351352682474E-4
yn,2.0484165068789857E-4
yo,2.076400338940174E-4
yp,3.313285716044698E-4
yq,2.4625772213845726E-4
yr,4.1192200794069216E-4
ys,3.637898167954483E-4
yt,1.5335139969531203E-4
yu,7.275796335908965E-5
yv,1.8973038137485687E-4
yw,2.798383206118833E-6
yx,1.1193532824475331E-5
yy,2.9662861984859628E-5
yz,2.798383206118833E-6
za,3.419624277877214E-4
zb,4.1416071450558724E-5
zc,1.0465953190884435E-4
zd,2.1323680030625505E-4
ze,2.848754103828972E-4
zf,5.204992763381029E-5
zg,1.2312886106922865E-5
zh,9.51450290080403E-6
zi,1.2256918442800488E-4
zj,1.1193532824475331E-5
zk,5.596766412237666E-7
zl,8.842890931335511E-5
zm,4.1975748091782494E-5
zn,2.9662861984859628E-5
zo,6.716119694685199E-5
zp,9.234664580192149E-5
zq,6.044507725216679E-5
zr,2.462577221384573E-5
zs,2.5185448855069497E-5
zt,3.8617688244439894E-5
zu,2.6304802137517027E-5
zv,2.9662861984859628E-5
zx,6.7161196946851984E-6
zy,1.0074179542027798E-5
zz,5.596766412237666E-6
